{
    "/js/app.js": "/js/app.js",
    "/js/login.js": "/js/login.js",
    "/css/profile.css": "/css/profile.css",
    "/css/login.css": "/css/login.css",
    "/css/main.css": "/css/main.css",
    "/css/welcome.css": "/css/welcome.css",
    "/css/app.css": "/css/app.css",
    "/css/create_account.css": "/css/create_account.css",
    "/css/oval.css": "/css/oval.css",
    "/css/account_card.css": "/css/account_card.css",
    "/css/last_transactions.css": "/css/last_transactions.css",
    "/css/categories_spendings_wheel.css": "/css/categories_spendings_wheel.css",
    "/css/vertical_menu.css": "/css/vertical_menu.css",
    "/css/footer.css": "/css/footer.css",
    "/css/header.css": "/css/header.css",
    "/css/statistics.css": "/css/statistics.css"
}
